| ------------------------------------------------------------------------- 
|                                      LaMEM                                
|                        Adjoint Gradient Framework Active                  
| ------------------------------------------------------------------------- 
| Adjoint parameters:  
|    Adjoint mode                             : Gradient descent (or Quasi-Newton) inversion  
|    Use Tao BLMVM (or LaMEM steepest descent): 1    
|    Gradient evaluation points               : several observation points  
|    Advect evaluation points with flow       : 0    
|    Objective function type                  : 0    
|    Objective function defined in input      : 1    
|    Maximum gradient descent iterations      : 200    
|    Maximum linesearch iterations            : 100    
|    Apply bounds                             : 0    
|    Tolerance (F/Fini)                       : 1.00000e-08  
|   1 : adjoint log10    eta[0 ] = 21       ; bnd=[-        ; -        ]   
|   2 : adjoint          rho[1 ] = 3220     ; bnd=[-        ; -        ]   
|   Total number of adjoint gradients      : 2   
|   Total number of FD gradients           : 0   
| 
|   Total number of observation points     : 1   
|       [600.000000,0.000000,-20.000000] has target velocity Vx=-0.36000
| 
| TAO: IOparam->Ab bounds = 0 
| 
| *************************************************************************
| TAO start iteration 1: 
| Currently employed parameters: 
|  eta[0]=2.1000000000e+01 
|  rho[1]=3.2200000000e+03 
| 
SNES Convergence Reason : ||F|| < atol 
SNES Convergence Reason : ||F|| < rtol*||F_initial|| 
| ************************************************************************
|                       COMPUTATION OF THE COST FUNCTION                    
| ************************************************************************
| Current Cost function = 3.1782342167e-02
| ************************************************************************ 
|                       COMPUTATION OF THE GRADIENTS                       
| ************************************************************************ 
| 
| Gradients: 
|                    Parameter             |  Gradient (dimensional)  
|                  -----------------------   ------------------------ 
|  adjoint     1:   log10  eta[ 0]            5.323656e-02 
|  adjoint     2:          rho[ 1]           -1.027791e-03 
| 
| 
| Observation points: 
|                                                   Velocity [cm/yr]       
|                       Location         |      Target         Value     
|       --------------------------------- --- ------------- ------------- 
| 1   : [  600.000;     0.000;   -20.000]  Vx -3.60000e-01  -1.05957e-01 
| 
| *************************************************************************
| TAO results of iteration 1: 
| 
| Parameter values: 
|   1. eta[0] =  2.10000e+01, gradient= 5.32366e-02
|   2. rho[1] =  3.22000e+03, gradient=-1.02779e-03
| 
| misfit           = 3.17823422e-02 
| misfit / misfit0 = 1.00000000e+00
| ------------------------------------------
| 
| *************************************************************************
| TAO start iteration 2: 
| Currently employed parameters: 
|  eta[0]=1.9806440423e+01 
|  rho[1]=3.2200230430e+03 
| 
SNES Convergence Reason : ||F|| < atol 
SNES Convergence Reason : ||F|| < atol 
| ************************************************************************
|                       COMPUTATION OF THE COST FUNCTION                    
| ************************************************************************
| Current Cost function = 5.0695242787e-02
| ************************************************************************ 
|                       COMPUTATION OF THE GRADIENTS                       
| ************************************************************************ 
| 
| Gradients: 
|                    Parameter             |  Gradient (dimensional)  
|                  -----------------------   ------------------------ 
|  adjoint     1:   log10  eta[ 0]           -2.009551e-01 
|  adjoint     2:          rho[ 1]            8.172475e-03 
| 
| 
| Observation points: 
|                                                   Velocity [cm/yr]       
|                       Location         |      Target         Value     
|       --------------------------------- --- ------------- ------------- 
| 1   : [  600.000;     0.000;   -20.000]  Vx -3.60000e-01  -6.80858e-01 
| 
| *************************************************************************
| TAO results of iteration 2: 
| 
| Parameter values: 
|   1. eta[0] =  1.98064e+01, gradient=-2.00955e-01
|   2. rho[1] =  3.22002e+03, gradient= 8.17247e-03
| 
| misfit           = 5.06952428e-02 
| misfit / misfit0 = 1.59507573e+00
| ------------------------------------------
| 
| *************************************************************************
| TAO start iteration 3: 
| Currently employed parameters: 
|  eta[0]=2.0442619764e+01 
|  rho[1]=3.2200107608e+03 
| 
SNES Convergence Reason : ||F|| < atol 
SNES Convergence Reason : ||F|| < atol 
| ************************************************************************
|                       COMPUTATION OF THE COST FUNCTION                    
| ************************************************************************
| Current Cost function = 1.9629649408e-03
| ************************************************************************ 
|                       COMPUTATION OF THE GRADIENTS                       
| ************************************************************************ 
| 
| Gradients: 
|                    Parameter             |  Gradient (dimensional)  
|                  -----------------------   ------------------------ 
|  adjoint     1:   log10  eta[ 0]            3.037253e-02 
|  adjoint     2:          rho[ 1]           -7.058774e-04 
| 
| 
| Observation points: 
|                                                   Velocity [cm/yr]       
|                       Location         |      Target         Value     
|       --------------------------------- --- ------------- ------------- 
| 1   : [  600.000;     0.000;   -20.000]  Vx -3.60000e-01  -2.96863e-01 
| 
| *************************************************************************
| TAO results of iteration 3: 
| 
| Parameter values: 
|   1. eta[0] =  2.04426e+01, gradient= 3.03725e-02
|   2. rho[1] =  3.22001e+03, gradient=-7.05877e-04
| 
| misfit           = 1.96296494e-03 
| misfit / misfit0 = 6.17627527e-02
| ------------------------------------------
| 
| *************************************************************************
| TAO start iteration 4: 
| Currently employed parameters: 
|  eta[0]=1.9702153824e+01 
|  rho[1]=3.2200312981e+03 
| 
SNES Convergence Reason : ||F|| < atol 
SNES Convergence Reason : ||F|| < atol 
| ************************************************************************
|                       COMPUTATION OF THE COST FUNCTION                    
| ************************************************************************
| Current Cost function = 7.3399479432e-02
| ************************************************************************ 
|                       COMPUTATION OF THE GRADIENTS                       
| ************************************************************************ 
| 
| Gradients: 
|                    Parameter             |  Gradient (dimensional)  
|                  -----------------------   ------------------------ 
|  adjoint     1:   log10  eta[ 0]           -2.312916e-01 
|  adjoint     2:          rho[ 1]            1.076736e-02 
| 
| 
| Observation points: 
|                                                   Velocity [cm/yr]       
|                       Location         |      Target         Value     
|       --------------------------------- --- ------------- ------------- 
| 1   : [  600.000;     0.000;   -20.000]  Vx -3.60000e-01  -7.46078e-01 
| 
| *************************************************************************
| TAO results of iteration 4: 
| 
| Parameter values: 
|   1. eta[0] =  1.97022e+01, gradient=-2.31292e-01
|   2. rho[1] =  3.22003e+03, gradient= 1.07674e-02
| 
| misfit           = 7.33994794e-02 
| misfit / misfit0 = 2.30944211e+00
| ------------------------------------------
| 
| *************************************************************************
| TAO start iteration 5: 
| Currently employed parameters: 
|  eta[0]=2.0351461144e+01 
|  rho[1]=3.2200132892e+03 
| 
SNES Convergence Reason : ||F|| < atol 
SNES Convergence Reason : ||F|| < atol 
| ************************************************************************
|                       COMPUTATION OF THE COST FUNCTION                    
| ************************************************************************
| Current Cost function = 1.3253655296e-04
| ************************************************************************ 
|                       COMPUTATION OF THE GRADIENTS                       
| ************************************************************************ 
| 
| Gradients: 
|                    Parameter             |  Gradient (dimensional)  
|                  -----------------------   ------------------------ 
|  adjoint     1:   log10  eta[ 0]            8.652427e-03 
|  adjoint     2:          rho[ 1]           -2.119746e-04 
| 
| 
| Observation points: 
|                                                   Velocity [cm/yr]       
|                       Location         |      Target         Value     
|       --------------------------------- --- ------------- ------------- 
| 1   : [  600.000;     0.000;   -20.000]  Vx -3.60000e-01  -3.43594e-01 
| 
| *************************************************************************
| TAO results of iteration 5: 
| 
| Parameter values: 
|   1. eta[0] =  2.03515e+01, gradient= 8.65243e-03
|   2. rho[1] =  3.22001e+03, gradient=-2.11975e-04
| 
| misfit           = 1.32536553e-04 
| misfit / misfit0 = 4.17013171e-03
| ------------------------------------------
| 
| *************************************************************************
| TAO start iteration 6: 
| Currently employed parameters: 
|  eta[0]=2.0315153120e+01 
|  rho[1]=3.2200146360e+03 
| 
SNES Convergence Reason : ||F|| < atol 
SNES Convergence Reason : ||F|| < atol 
| ************************************************************************
|                       COMPUTATION OF THE COST FUNCTION                    
| ************************************************************************
| Current Cost function = 5.6095700678e-06
| ************************************************************************ 
|                       COMPUTATION OF THE GRADIENTS                       
| ************************************************************************ 
| 
| Gradients: 
|                    Parameter             |  Gradient (dimensional)  
|                  -----------------------   ------------------------ 
|  adjoint     1:   log10  eta[ 0]           -1.838086e-03 
|  adjoint     2:          rho[ 1]            4.609480e-05 
| 
| 
| Observation points: 
|                                                   Velocity [cm/yr]       
|                       Location         |      Target         Value     
|       --------------------------------- --- ------------- ------------- 
| 1   : [  600.000;     0.000;   -20.000]  Vx -3.60000e-01  -3.63375e-01 
| 
| *************************************************************************
| TAO results of iteration 6: 
| 
| Parameter values: 
|   1. eta[0] =  2.03152e+01, gradient=-1.83809e-03
|   2. rho[1] =  3.22001e+03, gradient= 4.60948e-05
| 
| misfit           = 5.60957007e-06 
| misfit / misfit0 = 1.76499581e-04
| ------------------------------------------
| 
| *************************************************************************
| TAO start iteration 7: 
| Currently employed parameters: 
|  eta[0]=2.0321514433e+01 
|  rho[1]=3.2200143806e+03 
| 
SNES Convergence Reason : ||F|| < atol 
SNES Convergence Reason : ||F|| < atol 
| ************************************************************************
|                       COMPUTATION OF THE COST FUNCTION                    
| ************************************************************************
| Current Cost function = 9.1649054911e-09
| ************************************************************************ 
|                       COMPUTATION OF THE GRADIENTS                       
| ************************************************************************ 
| 
| Gradients: 
|                    Parameter             |  Gradient (dimensional)  
|                  -----------------------   ------------------------ 
|  adjoint     1:   log10  eta[ 0]            7.389391e-05 
|  adjoint     2:          rho[ 1]           -1.845333e-06 
| 
| 
| Observation points: 
|                                                   Velocity [cm/yr]       
|                       Location         |      Target         Value     
|       --------------------------------- --- ------------- ------------- 
| 1   : [  600.000;     0.000;   -20.000]  Vx -3.60000e-01  -3.59864e-01 
| 
| *************************************************************************
| TAO results of iteration 7: 
| 
| Parameter values: 
|   1. eta[0] =  2.03215e+01, gradient= 7.38939e-05
|   2. rho[1] =  3.22001e+03, gradient=-1.84533e-06
| 
| misfit           = 9.16490549e-09 
| misfit / misfit0 = 2.88364698e-07
| ------------------------------------------
| ------------------------------------------------------------------------- 
| ------------------------------------------------------------------------- 
| ------------------------------------------------------------------------- 
| *                         INVERSION RESULT SUMMARY                      * 
| ------------------------------------------------------------------------- 
| Number of inversion iterations: 8
| F/Fini:
| 1.00000e+00
| 1.59508e+00
| 6.17628e-02
| 2.30944e+00
| 4.17013e-03
| 1.76500e-04
| 2.88365e-07
| 
| Final cost function:
| 9.16491e-09
| 
| Final Parameters: 
| eta[0] = 2.03215e+01
| rho[1] = 3.22001e+03
| ------------------------------------------------------------------------- 
| Adjoint computation was successful & took 2.30902 s                         	 
| ************************************************************************ 
